An Interactive Map
…
Notice that in addition to the attribute data being aggregated, the geometries have been aggregated as well. All geometries in each group have been combined together and the boundaries between adjacent geometries dissolved. Internally, the function st_union() is used to achieve this.

As with normal data frame, grouped filtering and mutating can be performed on sf objects. For example, to calculate the proportional allocation of births between counties within each group, use a grouped mutate():

# grouped mutate: proportional area of county within group
nc_groups %>% 
  select(group, AREA) %>% 
  group_by(group) %>% 
  ungroup() %>% 
  mutate(area_prop = sum(AREA)) %>% 
  as_tibble()

## # A tibble: 100 x 4
##    group  AREA                                           geometry area_prop
##    <chr> <dbl>                                 <MULTIPOLYGON []>     <dbl>
##  1 A     0.114 (((-81.47276 36.23436, -81.54084 36.27251, -81.56~      12.6
##  2 C     0.061 (((-81.23989 36.36536, -81.24069 36.37942, -81.26~      12.6
##  3 C     0.143 (((-80.45634 36.24256, -80.47639 36.25473, -80.53~      12.6
##  4 B     0.07  (((-76.00897 36.3196, -76.01735 36.33773, -76.032~      12.6
##  5 B     0.153 (((-77.21767 36.24098, -77.23461 36.2146, -77.298~      12.6
##  6 C     0.097 (((-76.74506 36.23392, -76.98069 36.23024, -76.99~      12.6
##  7 C     0.062 (((-76.00897 36.3196, -75.95718 36.19377, -75.981~      12.6
##  8 A     0.091 (((-76.56251 36.34057, -76.60424 36.31498, -76.64~      12.6
##  9 A     0.118 (((-78.30876 36.26004, -78.28293 36.29188, -78.32~      12.6
## 10 A     0.124 (((-80.02567 36.25023, -80.45301 36.25709, -80.43~      12.6
## # ... with 90 more rows

Note that this currently throws an error, but Ive filed an issue and the problem has been fixed in the development version of the package.

To only retain countries within groups that have area greater than a given threshold, a grouped filter() can be used:

# grouped filter: only keep counties in groups with area greater than 0.13
nc_groups %>% 
  select(group, AREA) %>% 
  group_by(group) %>% 
  filter(mean(AREA) > 0.13) %>% 
  as_tibble()

## # A tibble: 38 x 3
##    group  AREA                                                     geometry
##  * <chr> <dbl>                                           <MULTIPOLYGON []>
##  1 B     0.07  (((-76.00897 36.3196, -76.01735 36.33773, -76.03288 36.3359~
##  2 B     0.153 (((-77.21767 36.24098, -77.23461 36.2146, -77.29861 36.2115~
##  3 B     0.114 (((-79.53051 36.24614, -79.5103 36.54766, -79.21706 36.5497~
##  4 B     0.153 (((-79.53051 36.24614, -79.53058 36.23616, -80.02567 36.250~
##  5 B     0.143 (((-78.74912 36.06359, -78.78841 36.06218, -78.80405 36.080~
##  6 B     0.109 (((-78.8068 36.23158, -78.95108 36.23384, -79.15927 36.2336~
##  7 B     0.064 (((-81.94135 35.95498, -81.9614 35.93922, -81.94495 35.9186~
##  8 B     0.108 (((-80.0381 36.00618, -80.12115 36.02155, -80.20988 36.0214~
##  9 B     0.17  (((-79.53782 35.89097, -80.0426 35.91681, -80.0381 36.00618~
## 10 B     0.111 (((-79.24619 35.86815, -79.23799 35.83725, -79.54099 35.836~
## # ... with 28 more rows
…
